mos2128
…
National Recreation Area

National Memorial

National Military Park

International Historic Site

National Wild & Scenic River

region_data %>%
  filter(region == "northeast") %>% distinct(activities_name) 

## # A tibble: 84 × 1
##    activities_name        
##    <chr>                  
##  1 Arts and Culture       
##  2 Cultural Demonstrations
##  3 Astronomy              
##  4 Stargazing             
##  5 Biking                 
##  6 Boating                
##  7 Camping                
##  8 Group Camping          
##  9 Climbing               
## 10 Rock Climbing          
## # ℹ 74 more rows
…
National River

National Wild & Scenic River

National Battlefield Park

National Preserve

National Battlefield

region_data %>%
  filter(region == "midwest") %>% distinct(activities_name) 

## # A tibble: 84 × 1
##    activities_name            
##    <chr>                      
##  1 Arts and Culture           
##  2 Cultural Demonstrations    
##  3 Astronomy                  
##  4 Stargazing                 
##  5 Food                       
##  6 Picnicking                 
##  7 Guided Tours               
##  8 Self-Guided Tours - Walking
##  9 Hiking                     
## 10 Junior Ranger Program      
## # ℹ 74 more rows
…
National Seashore

National Military Park

National Battlefield

National Battlefield Park

Park (Other)

region_data %>%
  filter(region == "south") %>%
  distinct(activities_name) 

## # A tibble: 89 × 1
##    activities_name            
##    <chr>                      
##  1 Astronomy                  
##  2 Stargazing                 
##  3 Food                       
##  4 Picnicking                 
##  5 Guided Tours               
##  6 Self-Guided Tours - Walking
##  7 Hands-On                   
##  8 Junior Ranger Program      
##  9 Wildlife Watching          
## 10 Birdwatching               
## # ℹ 79 more rows
…
National Recreation Area

National Historical Park

National Reserve

National Memorial

National Preserve

National Seashore

region_data %>% filter(region == "west") %>% distinct(activities_name) 

## # A tibble: 99 × 1
##    activities_name             
##    <chr>                       
##  1 Arts and Culture            
##  2 Astronomy                   
##  3 Stargazing                  
##  4 Biking                      
##  5 Camping                     
##  6 Backcountry Camping         
##  7 Car or Front Country Camping
##  8 Group Camping               
##  9 Canyoneering                
## 10 Climbing                    
## # ℹ 89 more rows
…
